<svg width="138" height="31" viewBox="0 0 138 31" fill="none" xmlns="http://www.w3.org/2000/svg">
<path d="M43.1911 13.7015L45.3623 17.578C45.6126 18.0248 46.529 18.0249 46.7794 17.5781L48.9516 13.7015C49.1438 13.3583 48.7766 12.9887 48.243 12.9887H43.8997C43.3661 12.9887 42.9988 13.3582 43.1911 13.7015ZM50.6326 23.6159H41.3436C40.8002 23.6159 40.3129 23.951 40.1177 24.4587L38.8069 29.2653C38.6116 29.7731 38.1244 30.1083 37.5809 30.1083H27.5359C26.5888 30.1083 28.8993 29.1349 29.2786 28.2658L40.3522 2.89651C40.8882 1.66869 42.0991 0.875141 43.4372 0.875141H48.7036C50.0427 0.875141 51.2548 1.66939 51.7912 2.89818L62.8641 28.2658C63.2434 29.1349 62.6076 30.1083 61.6604 30.1083H54.3959C53.8527 30.1083 53.3655 29.7733 53.1702 29.2656L51.8583 24.4583C51.663 23.9508 51.1758 23.6159 50.6326 23.6159Z" fill="#231F20"/>
<path d="M75.6138 29.5075L71.5138 23.1626C71.2533 22.7593 70.663 22.7627 70.407 23.169L66.4225 29.4947C66.1818 29.8767 65.7623 30.1084 65.3115 30.1084H57.3766C56.3072 30.1084 55.6861 28.8968 56.309 28.0263L64.8255 16.1263C65.1509 15.6717 65.1537 15.0608 64.8325 14.6032L56.6497 2.94749C56.0378 2.0759 56.6603 0.875351 57.7243 0.875351H65.5462C65.9823 0.875351 66.3901 1.09206 66.6344 1.45399L70.6545 7.40905C70.9169 7.79755 71.4894 7.79421 71.747 7.40265L75.6538 1.46679C75.8969 1.09749 76.309 0.875351 76.7506 0.875351H84.0719C85.1421 0.875351 85.7633 2.08842 85.1385 2.95862L77.0512 14.2262C76.723 14.6834 76.7217 15.2991 77.048 15.7576L85.7805 28.0293C86.4002 28.9 85.7787 30.1084 84.7108 30.1084H76.7166C76.2711 30.1084 75.8559 29.882 75.6138 29.5075Z" fill="#231F20"/>
<path d="M90.2805 29.0006V1.99926C90.2805 1.3046 90.714 0.870619 91.4075 0.870619H92.7079C93.4014 0.870619 93.835 1.3046 93.835 1.99926V29.0006C93.835 29.695 93.4014 30.1293 92.7079 30.1293H91.4075C90.714 30.1293 90.2805 29.695 90.2805 29.0006Z" fill="#231F20"/>
<path d="M98.3718 28.9139V10.8984C98.3718 10.1603 98.8053 9.76985 99.4988 9.76985H100.799C101.493 9.76985 101.926 10.2041 101.926 10.8984V28.9139C101.926 29.652 101.493 30.0426 100.799 30.0426H99.4988C98.8053 30.0426 98.3718 29.6083 98.3718 28.9139Z" fill="#231F20"/>
<path d="M98.3718 6.25272V4.29896C98.3718 3.56104 98.8053 3.17046 99.4988 3.17046H100.799C101.493 3.17046 101.926 3.60472 101.926 4.29896V6.25272C101.926 6.99078 101.493 7.38123 100.799 7.38123H99.4988C98.8053 7.38123 98.3718 6.9471 98.3718 6.25272Z" fill="#231F20"/>
<path d="M108.327 29.0006V13.0254H105.293C104.556 13.0254 104.166 12.5914 104.166 11.8968V10.9851C104.166 10.2907 104.599 9.85647 105.293 9.85647H108.327V9.50928C108.327 3.30135 111.448 0.392956 116.389 0.392956C118.253 0.392956 119.813 0.957413 121.071 1.91218C121.374 2.17271 121.547 2.4331 121.547 2.73703C121.547 2.95416 121.461 3.21469 121.287 3.47508L120.94 3.99614C120.68 4.38659 120.421 4.56046 120.117 4.56046C119.9 4.56046 119.64 4.47367 119.38 4.34333C118.556 3.86567 117.603 3.56188 116.606 3.56188C113.572 3.56188 111.881 5.47197 111.881 9.29215V9.85647H119.38C120.074 9.85647 120.507 10.2907 120.507 10.9851V11.8968C120.507 12.5914 120.074 13.0254 119.38 13.0254H111.881V29.0006C111.881 29.695 111.448 30.1293 110.754 30.1293H109.454C108.76 30.1293 108.327 29.695 108.327 29.0006Z" fill="#231F20"/>
<path d="M133.943 17.931C133.64 14.5884 131.906 12.5047 128.525 12.5047C125.274 12.5047 122.933 14.4583 122.283 17.931H133.943ZM118.686 20.0147C118.686 14.1545 122.63 9.379 128.525 9.379C134.203 9.379 137.628 13.1992 137.628 19.4938V19.7543C137.628 20.4488 137.194 20.883 136.5 20.883H122.153C122.457 24.6161 124.841 27.4377 128.872 27.4377C131.429 27.4377 133.119 26.6564 134.421 25.3976C134.724 25.137 134.94 24.9633 135.243 24.9633C135.504 24.9633 135.721 25.0504 135.981 25.2675L136.5 25.7014C136.804 25.9619 136.978 26.2657 136.978 26.613C136.978 26.7868 136.935 27.0039 136.761 27.221C134.94 29.565 132.296 30.6069 128.872 30.6069C122.457 30.6069 118.686 26.2224 118.686 20.0147Z" fill="#231F20"/>
<path d="M27.566 0.796581C25.1471 0.796581 24.291 1.63854 23.2481 2.93994L16.0722 12.332L8.88292 2.92297C7.85297 1.63854 6.99685 0.796581 4.57878 0.796581C2.18088 0.796581 0.372559 2.39301 0.372559 4.50965V26.9784C0.372559 28.8786 2.02349 30.1056 4.57878 30.1056C8.30889 30.1056 8.86598 28.1614 8.86598 27.0026L8.85903 16.8667C9.06667 17.1536 9.2932 17.4663 9.53834 17.806C10.8593 19.6333 11.9253 20.9784 12.9938 22.1688C13.9635 23.2475 14.8556 23.6868 16.0722 23.6868C17.321 23.6868 18.1553 23.2759 19.1514 22.1681C20.2222 20.9752 21.2874 19.63 22.606 17.806C22.8511 17.4663 23.0776 17.1536 23.2853 16.8675V25.8941L23.2788 27.0026C23.2788 28.1614 23.8358 30.1056 27.566 30.1056C30.1208 30.1056 31.7719 28.8786 31.7719 26.9784V4.50965C31.7719 2.35809 30.0031 0.796581 27.566 0.796581Z" fill="#231F20"/>
</svg>
